Species Sensitivity Data Sets — ssd_data_sets • ssddata
…
#> $anzg_ametryn_fresh
#> # A tibble: 8 × 6
#>      Conc Duration Genus        Group      Species       Toxicity_measure
#>     <dbl> <chr>    <chr>        <chr>      <chr>         <chr>           
#> 1    0.06 96       Chlorella    Green alga pyrenoidosa   Chronic EC50    
#> 2 2000    240      Chlorococcum Green alga sp.           Chronic EC50    
#> 3    7.2  72       Neochloris   Green alga sp.           Chronic EC50    
#> 4    4.8  72       Platymonas   Green alga sp.           Chronic EC50    
#> 5   30    96       Scenedesmus  Green alga quadricauda   Chronic EC50    
#> 6    1.14 168      Selenastrum  Green alga capricornutum Chronic NOEL    
#> 7    2    168      Lemna        Macrophyte gibba         Chronic NOEL    
#> 8    5.2  72       Stauroneis   Diatom     amphoroides   Chronic EC50    
#> 
#> $anzg_ammonia_fresh
#> # A tibble: 40 × 6
#>     Conc Duration Genus        Group      Species              Toxicity_measure
#>    <dbl> <chr>    <chr>        <chr>      <chr>                <chr>           
#>  1 165   3        Chlorella    Microalga  vulgaris             Chronic EC10    
#>  2 560   3        Raphidocelis Microalga  subcapitata          Chronic EC10    
#>  3   1.2 30       Polycelis    Flatworm   felina               Chronic NOEC    
#>  4  42   7        Ceriodaphnia Cladoceran dubia                Chronic NOEC    
#>  5  21   21       Daphnia      Cladoceran magna                Chronic NOEC    
#>  6  29   21       Chironomus   Insect     riparius             Chronic NOEC    
#>  7   7.2 29       Coloburiscus Insect     humeralis            Chronic NOEC    
#>  8   3.2 29       Deleatidium  Insect     sp.                  Chronic NOEC    
#>  9   8.9 70       Hyalella     Amphipod   azteca               Chronic NOEC    
#> 10  19   21       Neocardidina Shrimp     denticulata sinensis Chronic NOEC    
#> # ℹ 30 more rows
…
#> $anzg_bisphenol_a_marine
#> # A tibble: 8 × 6
#>      Conc Genus              Group        Species Test_endpoint Toxicity_measure
#>     <dbl> <chr>              <chr>        <chr>   <chr>         <chr>           
#> 1  302    Prorocentrum       Dinoflagell… cordat… Chronic EC50  72              
#> 2 3470    Margalefidinium    Dinoflagell… polykr… Chronic EC50  72              
#> 3   45.6  Hemicentrotus      Echinoderm   pulche… Chronic LOEC  920             
#> 4   38.8  Paracentrotus      Echinoderm   lividus Acute EC50    0.5             
#> 5   45.3  Strongylocentrotus Echinoderm   purpur… Chronic EC50  96              
#> 6    0.19 Haliotis           Mollusc      divers… Chronic EC5   96              
#> 7   20    Tigriopus          Crustacean   japoni… Acute LC50    96              
#> 8  103    Americamysis       Crustacean   bahia   Acute LC50    96              
#> 
#> $anzg_boron_fresh
#> # A tibble: 22 × 6
#>     Conc Duration Genus        Group     Species   Toxicity_measure
#>    <dbl> <chr>    <chr>        <chr>     <chr>     <chr>           
#>  1  41   7.5      Anaxyrus     Amphibian fowleri   Chronic LC10    
#>  2  29   7.5      Rana         Amphibian pipiens   Chronic LC10    
#>  3  17   7        Carassius    Fish      auratus   Chronic LC10    
#>  4   1.8 34       Danio        Fish      rerio     Chronic NOEC    
#>  5  14   9        Ictalurus    Fish      punctatus Chronic LC10    
#>  6 102   12       Melanotaenia Fish      splendida Chronic LC10    
#>  7   6   11       Micropteris  Fish      salmoides Chronic LC10    
#>  8   6.2 28       Oncorhynchus Fish      mykiss    Chronic LC10    
#>  9  11   32       Pimephales   Fish      promelas  Chronic NOEC    
#> 10   4   52       Cirrhinus    Fish      mrigala   Chronic NOEC    
#> # ℹ 12 more rows
…
#>  2   3.4 72       Raphidocelis    Microalga  subcapitata   Chronic EC50    
#>  3  10   72       Chlorella       Microalga  kessleri      Chronic EC50    
#>  4 557   72       Dictyosphaerium Microalga  chlorelloides Chronic EC50    
#>  5  82   24       Brachionus      Rotifer    calyciflorus  Acute LC50      
#>  6 128   24       Lecane          Rotifer    quadridentata Acute LC50      
#>  7 330   504      Daphnia         Crustacean magna         Chronic EC16    
#>  8 324   48       Daphnia         Crustacean similis       Acute EC50      
#>  9  48   1,728    Oncorhynchus    Fish       mykiss        Chronic NOEC    
#> 10 333   96       Poecilia        Fish       reticulata    Acute LC50      
#> 11 410   96       Carassius       Fish       auratus       Acute LC50      
#> 12 507   96       Pimephales      Fish       promelas      Acute LC50      
#> 13 746   96       Lepomis         Fish       macrochirus   Acute LC50      
#> 
#> $anzg_metolachlor_fresh
#> # A tibble: 21 × 10
#>     Conc Duration Genus      Group Life_stage Notes Phylum Species Test_endpoint
#>    <dbl> <chr>    <chr>      <chr> <chr>      <chr> <chr>  <chr>   <chr>        
#>  1  6528 4        Achnanthi… Diat… Exponenti… Spec… Bacil… minuti… Cell density 
#>  2   240 5        Anabaena   Blue… Not stated NA    Cyano… flosaq… Biomass yiel…
#>  3    14 14       Ceratophy… Macr… Not stated Spec… Trach… demers… Wet weight   
#>  4   228 4        Chlamydom… Gree… Not stated Spec… Chlor… reinha… Chlorophyll-…
#>  5     1 4        Chlorella  Gree… Exponenti… Spec… Chlor… pyreno… Chlorophyll-…
#>  6  4016 4        Craticula  Diat… Exponenti… Spec… Bacil… accomo… Chlorophyll-…
#>  7   925 4        Cyclotella Diat… Exponenti… Spec… Bacil… menegh… Cell density 
#>  8   224 21       Daphnia    Macr… <24 hour … NA    Arthr… magna   Young per fe…
#>  9   471 14       Elodea     Macr… Not stated Spec… Trach… canade… Wet weight   
#> 10  1048 4        Encyonema  Diat… Exponenti… Spec… Bacil… silesi… Chlorophyll-…
#> # ℹ 11 more rows
#> # ℹ 1 more variable: Toxicity_measure <chr>
#> 
#> $ccme_boron
#> # A tibble: 28 × 5
#>    Chemical Species                  Conc Group        Units
#>    <chr>    <chr>                   <dbl> <fct>        <chr>
#>  1 Boron    Oncorhynchus mykiss       2.1 Fish         mg/L 
#>  2 Boron    Ictalurus punctatus       2.4 Fish         mg/L 
#>  3 Boron    Micropterus salmoides     4.1 Fish         mg/L 
#>  4 Boron    Brachydanio rerio        10   Fish         mg/L 
#>  5 Boron    Carassius auratus        15.6 Fish         mg/L 
#>  6 Boron    Pimephales promelas      18.3 Fish         mg/L 
#>  7 Boron    Daphnia magna             6   Invertebrate mg/L 
#>  8 Boron    Opercularia bimarginata  10   Invertebrate mg/L 
#>  9 Boron    Ceriodaphnia dubia       13.4 Invertebrate mg/L 
#> 10 Boron    Entosiphon sulcatum      15   Invertebrate mg/L 
#> # ℹ 18 more rows
#> 
#> $ccme_cadmium
#> # A tibble: 36 × 5
#>    Chemical Species                   Conc Group Units
#>    <chr>    <chr>                    <dbl> <fct> <chr>
#>  1 Cadmium  Oncorhynchus mykiss       0.23 Fish  ug/L 
#>  2 Cadmium  Salvelinus confluentus    0.83 Fish  ug/L 
#>  3 Cadmium  Cottus bairdi             0.96 Fish  ug/L 
#>  4 Cadmium  Salmo salar               0.99 Fish  ug/L 
#>  5 Cadmium  Acipenser transmontanus   1.14 Fish  ug/L 
#>  6 Cadmium  Prosopium williamsoni     1.25 Fish  ug/L 
#>  7 Cadmium  Salmo trutta              1.36 Fish  ug/L 
#>  8 Cadmium  Salvelinus fontinalis     2.23 Fish  ug/L 
#>  9 Cadmium  Oncorhynchus tshawytscha  2.29 Fish  ug/L 
#> 10 Cadmium  Pimephales promelas       2.36 Fish  ug/L 
#> # ℹ 26 more rows
#> 
#> $ccme_chloride
#> # A tibble: 28 × 5
#>    Chemical Species                       Conc Group        Units
#>    <chr>    <chr>                        <dbl> <fct>        <chr>
#>  1 Chloride Pimephales promelas            598 Fish         mg/L 
#>  2 Chloride Salmo trutta fario             607 Fish         mg/L 
#>  3 Chloride Oncorhynchus mykiss            989 Fish         mg/L 
#>  4 Chloride Xenopus laevis                1307 Amphibian    mg/L 
#>  5 Chloride Rana pipiens                  3431 Amphibian    mg/L 
#>  6 Chloride Lampsilis fasciola              24 Invertebrate mg/L 
#>  7 Chloride Epioblasma torulosa rangiana    42 Invertebrate mg/L 
#>  8 Chloride Musculium securis              121 Invertebrate mg/L 
#>  9 Chloride Daphnia ambigua                259 Invertebrate mg/L 
#> 10 Chloride Daphnia pulex                  368 Invertebrate mg/L 
#> # ℹ 18 more rows
…
#>  2 Uranium  Pimephales promelas              1040 Fish         ug/L 
#>  3 Uranium  Esox lucius                      2550 Fish         ug/L 
#>  4 Uranium  Salvelinus namaycush            13400 Fish         ug/L 
#>  5 Uranium  Catostomus commersoni           14300 Fish         ug/L 
#>  6 Uranium  Hyalella azteca                    12 Invertebrate ug/L 
#>  7 Uranium  Ceriodaphnia dubia                 73 Invertebrate ug/L 
#>  8 Uranium  Simocephalus serrulatus           480 Invertebrate ug/L 
#>  9 Uranium  Daphnia magna                     530 Invertebrate ug/L 
#> 10 Uranium  Chironomus tentans                930 Invertebrate ug/L 
#> 11 Uranium  Pseudokirchneriella subcapitata    40 Plant        ug/L 
#> 12 Uranium  Lemna minor                      3100 Plant        ug/L 
#> 13 Uranium  Cryptomonas erosa                 172 Plant        ug/L 
#> 
#> $csiro_chlorine_marine
#> # A tibble: 30 × 2
#>     Conc Group   
#>    <dbl> <chr>   
#>  1    90 Rotifer 
#>  2   687 Amphipod
#>  3   145 Amphipod
#>  4   178 Shrimp  
#>  5  2890 Lobster 
#>  6   162 Mysid   
#>  7    90 Shrimp  
#>  8   134 Shrimp  
#>  9  1420 Crab    
#> 10    54 Fish    
#> # ℹ 20 more rows
…
#>  5  397   18       Copepod    Nauplii     Tisbe … EC10          Adult survival  
#>  6   46   3        Sea urchin Embryo      Strong… EC10          Abnormalities   
#>  7  119   2        Sea urchin Embryo      Parace… EC10          Larval growth   
#>  8  250   3        Sea urchin Embryo      Dendra… EC10          Growth          
#>  9   10   3        Sea urchin Embryo      Helioc… NOEC          Reproduction    
#> 10    7   30       Mysid      Neonates    Amerca… EC10          Time to first b…
#> 11   51   2        Bivalve    Embryo      Mytilu… EC10          Abnormalities   
#> 12   12.4 2        Bivalve    Embryo      Mytilu… EC10          Abnormalities   
#> 13  931   2        Bivalve    Embryo      Crasso… EC10          Survival        
#> 14   96   126      Polychaete Juvenile    Neanth… EC10          Survival        
#> 15  230   28       Fish       Embryo      Cyprin… EC10          Dry weight      
#> 16   44.3 28       Fish       Larva       Atheri… EC10          Mortality and g…
#> 
#> $csiro_nickel_fresh
#> # A tibble: 31 × 6
#>     Conc Domain    Group                   Notes   Species         Test_endpoint
#>    <dbl> <chr>     <chr>                   <chr>   <chr>           <chr>        
#>  1  1.4  temperate Mollusc (snail)         none    Lymnaea stagna… EC10         
#>  2  1.52 temperate Crustacean (water flea) geomean Ceriodaphnia d… EC10/LOEC    
#>  3  3.63 temperate Crustacean (water flea) geomean Alona affinis   LC50         
#>  4  8.49 temperate Crustacean (water flea) geomean Ceriodaphnia q… EC10         
#>  5 11.0  temperate Crustacean (water flea) geomean Peracantha tru… EC10         
#>  6 12    temperate Crustacean (water flea) geomean Daphnia magna   EC10         
#>  7 13.9  temperate Crustacean (water flea) geomean Ceriodaphnia p… EC10         
#>  8 14.4  temperate Crustacean (water flea) geomean Simocephalus v… EC10         
#>  9 17.6  temperate Crustacean (water flea) geomean Simocephalus s… EC10         
#> 10 36    temperate Microalga (diatom)      none    Navicula pelli… EC10         
#> # ℹ 21 more rows
…
