ANZTOX Species Sensitivity Data — anztox_data • ssddata
…
data
A list-column containing a tibble of species-level rows for that
chemical × media combination. Each row represents a single species and
contains columns: scientificname, commonname_species,
majorgroup, minorgroup, endpoint,
endpoint_concentration (geometric mean concentration in µg/L or mg/L,
depending on the chemical), testtype (Chronic or Acute),
source_datasets (comma-separated source: "2000", "2016", or both),
and n_acute_converted (count of acute records that contributed to
the geometric mean after ACR conversion).

    Examples

print(anztox_data)
#> # A tibble: 174 × 4
#>    casnumber_grouped chemicalname_grouped  mediatype  data             
#>    <chr>             <chr>                 <chr>      <list>           
#>  1 60515             Dimethoate            Freshwater <tibble [30 × 9]>
#>  2 79005             1,1,2-Trichloroethane Freshwater <tibble [19 × 9]>
#>  3 79005             1,1,2-Trichloroethane Marine     <tibble [17 × 9]>
#>  4 58899             Lindane               Freshwater <tibble [71 × 9]>
#>  5 2921882           Chlorpyrifos          Freshwater <tibble [53 × 9]>
#>  6 2921882           Chlorpyrifos          Marine     <tibble [29 × 9]>
#>  7 309002            Aldrin                Freshwater <tibble [41 × 9]>
#>  8 12789036          Chlordane             Freshwater <tibble [38 × 9]>
#>  9 60571             Dieldrin              Freshwater <tibble [17 × 9]>
#> 10 115297            Endosulfan            Freshwater <tibble [74 × 9]>
#> # ℹ 164 more rows
…
