…
Warne MS, Batley GE, van Dam RA, Chapman JC, Fox DR, Hickey CW, Stauber
JL, Fisher R (2025). “Method for Deriving Australian and New Zealand
Water Quality Guideline Values for Protecting Aquatic Ecosystems from
Toxicants – Update of 2018 Version.” Australian and New Zealand
Governments, Canberra, ACT, Australia. Prepared for the Australian and
New Zealand Guidelines for Fresh and Marine Water Quality.

## Examples

``` r

print(anztox_data)
#> # A tibble: 174 × 4
#>    casnumber_grouped chemicalname_grouped  mediatype  data              
#>    <chr>             <chr>                 <chr>      <list>            
#>  1 60515             Dimethoate            Freshwater <tibble [30 × 11]>
#>  2 79005             1,1,2-Trichloroethane Freshwater <tibble [19 × 11]>
#>  3 79005             1,1,2-Trichloroethane Marine     <tibble [17 × 11]>
#>  4 58899             Lindane               Freshwater <tibble [71 × 11]>
#>  5 2921882           Chlorpyrifos          Freshwater <tibble [53 × 11]>
#>  6 2921882           Chlorpyrifos          Marine     <tibble [29 × 11]>
#>  7 309002            Aldrin                Freshwater <tibble [41 × 11]>
#>  8 12789036          Chlordane             Freshwater <tibble [38 × 11]>
#>  9 60571             Dieldrin              Freshwater <tibble [17 × 11]>
#> 10 115297            Endosulfan            Freshwater <tibble [74 × 11]>
#> # ℹ 164 more rows
…
