…
#> $anzg_ametryn_fresh
#> # A tibble: 8 × 6
#>      Conc Duration Genus        Group      Species       Toxicity_measure
#>     <dbl> <chr>    <chr>        <chr>      <chr>         <chr>           
#> 1    0.06 96       Chlorella    Green alga pyrenoidosa   Chronic EC50    
#> 2 2000    240      Chlorococcum Green alga sp.           Chronic EC50    
#> 3    7.2  72       Neochloris   Green alga sp.           Chronic EC50    
#> 4    4.8  72       Platymonas   Green alga sp.           Chronic EC50    
#> 5   30    96       Scenedesmus  Green alga quadricauda   Chronic EC50    
#> 6    1.14 168      Selenastrum  Green alga capricornutum Chronic NOEL    
#> 7    2    168      Lemna        Macrophyte gibba         Chronic NOEL    
#> 8    5.2  72       Stauroneis   Diatom     amphoroides   Chronic EC50    
#> 
#> $anzg_ammonia_fresh
#> # A tibble: 40 × 6
#>     Conc Duration Genus        Group      Species              Toxicity_measure
#>    <dbl> <chr>    <chr>        <chr>      <chr>                <chr>           
#>  1 165   3        Chlorella    Microalga  vulgaris             Chronic EC10    
#>  2 560   3        Raphidocelis Microalga  subcapitata          Chronic EC10    
#>  3   1.2 30       Polycelis    Flatworm   felina               Chronic NOEC    
#>  4  42   7        Ceriodaphnia Cladoceran dubia                Chronic NOEC    
#>  5  21   21       Daphnia      Cladoceran magna                Chronic NOEC    
#>  6  29   21       Chironomus   Insect     riparius             Chronic NOEC    
#>  7   7.2 29       Coloburiscus Insect     humeralis            Chronic NOEC    
#>  8   3.2 29       Deleatidium  Insect     sp.                  Chronic NOEC    
#>  9   8.9 70       Hyalella     Amphipod   azteca               Chronic NOEC    
#> 10  19   21       Neocardidina Shrimp     denticulata sinensis Chronic NOEC    
#> # ℹ 30 more rows
…
#> $anzg_bisphenol_a_marine
#> # A tibble: 8 × 6
#>      Conc Duration Genus              Group          Species    Toxicity_measure
#>     <dbl> <chr>    <chr>              <chr>          <chr>      <chr>           
#> 1  302    72       Prorocentrum       Dinoflagellate cordatum   Chronic EC50    
#> 2 3470    72       Margalefidinium    Dinoflagellate polykriko… Chronic EC50    
#> 3   45.6  920      Hemicentrotus      Echinoderm     pulcherri… Chronic LOEC    
#> 4   38.8  0.5      Paracentrotus      Echinoderm     lividus    Acute EC50      
#> 5   45.3  96       Strongylocentrotus Echinoderm     purpuratus Chronic EC50    
#> 6    0.19 96       Haliotis           Mollusc        diversico… Chronic EC5     
#> 7   20    96       Tigriopus          Crustacean     japonicus  Acute LC50      
#> 8  103    96       Americamysis       Crustacean     bahia      Acute LC50      
#> 
#> $anzg_boron_fresh
#> # A tibble: 22 × 6
#>     Conc Duration Genus        Group     Species   Toxicity_measure
#>    <dbl> <chr>    <chr>        <chr>     <chr>     <chr>           
#>  1  41   7.5      Anaxyrus     Amphibian fowleri   Chronic LC10    
#>  2  29   7.5      Rana         Amphibian pipiens   Chronic LC10    
#>  3  17   7        Carassius    Fish      auratus   Chronic LC10    
#>  4   1.8 34       Danio        Fish      rerio     Chronic NOEC    
#>  5  14   9        Ictalurus    Fish      punctatus Chronic LC10    
#>  6 102   12       Melanotaenia Fish      splendida Chronic LC10    
#>  7   6   11       Micropteris  Fish      salmoides Chronic LC10    
#>  8   6.2 28       Oncorhynchus Fish      mykiss    Chronic LC10    
#>  9  11   32       Pimephales   Fish      promelas  Chronic NOEC    
#> 10   4   52       Cirrhinus    Fish      mrigala   Chronic NOEC    
#> # ℹ 12 more rows
#> 
#> $anzg_chlorine_marine
#> # A tibble: 29 × 7
#>      Conc Duration    Genus       Group      Life_stage Species Toxicity_measure
#>     <dbl> <chr>       <chr>       <chr>      <chr>      <chr>   <chr>           
#>  1    6.4 0.003470833 Dendraster  Echinoderm Sperm      excent… Acute EC50      
#>  2   90   0.020833333 Brachionus  Rotifer    Not stated plicat… Acute LC50      
#>  3   23   4           Crassostrea Mollusc    Larva      virgin… Acute LC50      
#>  4   29   4           Acartia     Crustacean Not stated tonsa   Acute LC50      
#>  5  687   4           Pontogeneia Crustacean Adult      sp.     Acute LC50      
#>  6  145   4           Anonyx      Crustacean Adult      sp.     Acute LC50      
#>  7 2890   0.041666667 Homarus     Crustacean Larva      americ… Acute LC50      
#>  8  162   4           Neomysis    Crustacean Adult      sp.     Acute LC50      
#>  9   68   4           Mysidopsis  Crustacean Juvenile   bahia   Acute LC50      
#> 10  178   4           Pandalus    Crustacean Juvenile … danae   Acute LC50      
#> # ℹ 19 more rows
…
#>  2   3.4 72       Raphidocelis    Microalga  subcapitata   Chronic EC50    
#>  3  10   72       Chlorella       Microalga  kessleri      Chronic EC50    
#>  4 557   72       Dictyosphaerium Microalga  chlorelloides Chronic EC50    
#>  5  82   24       Brachionus      Rotifer    calyciflorus  Acute LC50      
#>  6 128   24       Lecane          Rotifer    quadridentata Acute LC50      
#>  7 330   504      Daphnia         Crustacean magna         Chronic EC16    
#>  8 324   48       Daphnia         Crustacean similis       Acute EC50      
#>  9  48   1,728    Oncorhynchus    Fish       mykiss        Chronic NOEC    
#> 10 333   96       Poecilia        Fish       reticulata    Acute LC50      
#> 11 410   96       Carassius       Fish       auratus       Acute LC50      
#> 12 507   96       Pimephales      Fish       promelas      Acute LC50      
#> 13 746   96       Lepomis         Fish       macrochirus   Acute LC50      
#> 
#> $anzg_copper_marine
#> # A tibble: 45 × 9
#>      Conc Duration Genus         Group   Life_stage Phylum Species Test_endpoint
#>     <dbl> <chr>    <chr>         <chr>   <chr>      <chr>  <chr>   <chr>        
#>  1   1.4  3        Entomoneis    Diatom  Exponenti… Bacil… punctu… Population g…
#>  2   0.2  3        Minutocellus  Diatom  Exponenti… Bacil… polymo… Population g…
#>  3   3.3  3        Ceratoneis    Diatom  Exponenti… Bacil… closte… Population g…
#>  4   1    3        Phaeodactylum Diatom  Exponenti… Bacil… tricor… Population b…
#>  5   8.5  3        Coccolithus   Golden… Exponenti… Hapto… huxleyi Population g…
#>  6   1.3  3        Gephyrocapsa  Golden… Exponenti… Hapto… oceani… Population g…
#>  7   0.84 3        Proteomonas   Golden… Exponenti… Hapto… sulcata Population g…
#>  8   2.7  3        Tisochrysis   Golden… Exponenti… Hapto… lutea   Population g…
#>  9 300    3        Cyanobium     Cyanob… Exponenti… Cyano… sp.     Population a…
#> 10   8    3        Dunaliella    Green … Exponenti… Chlor… tertio… Population g…
#> # ℹ 35 more rows
#> # ℹ 1 more variable: Toxicity_measure <chr>
…
#>  3 0.035 1        Culex      Inse… Larvae     Acut… Arthr… quinqu… Mortality    
#>  4 0.042 2        Chironomus Inse… Larvae     Acut… Arthr… crassi… Mortality    
#>  5 0.042 2        Glyptoten… Inse… Larvae     Acut… Arthr… paripes Mortality    
#>  6 0.043 2        Aedes      Inse… Larvae     Acut… Arthr… taenio… Mortality    
#>  7 0.043 2        Anopheles  Inse… Larvae     Acut… Arthr… quadri… Mortality    
#>  8 0.044 4        Hexagenia  Inse… Nymph      Acut… Arthr… sp.     Mortality    
#>  9 0.087 2        Culex      Inse… Larvae     Acut… Arthr… nigrip… Mortality    
#> 10 0.1   2        Polypedil… Inse… Larvae     Acut… Arthr… nubife… Mortality    
#> 11 0.12  1        Aedes      Inse… Larvae     Acut… Arthr… aegypti Mortality    
#> 12 0.245 2        Chironomus Inse… Larvae     Acut… Arthr… annula… Mortality    
#> 13 0.81  2        Aedes      Inse… Larvae     Acut… Arthr… albopi… Mortality    
#> # ℹ 1 more variable: Toxicity_measure <chr>
#> 
#> $anzg_fluoride_fresh
#> # A tibble: 22 × 9
#>     Conc Duration Genus          Group    Life_stage Notes Species Test_endpoint
#>    <dbl> <chr>    <chr>          <chr>    <chr>      <chr> <chr>   <chr>        
#>  1    95 15       Chlorella      Green a… Not stated Valu… vulgar… Growth       
#>  2    50 6.3      Scenedesmus    Green a… Not stated Valu… quadri… Growth       
#>  3   127 3        Scenedesmus    Green a… Not stated Valu… subspi… Growth       
#>  4   195 3        Raphidocelis   Green a… Not stated Valu… subcap… Growth       
#>  5    50 6.3      Ankistrodesmus Green a… Not stated Valu… braunii Growth       
#>  6    50 6.3      Nephroselmis   Green a… Not stated Valu… pyrifo… Growth       
#>  7    50 6.3      Cyclotella     Diatom   Not stated Valu… menegh… Growth       
#>  8    50 6.3      Stephanodiscus Diatom   Not stated Valu… minutus Growth       
#>  9    50 6.3      Oscillatoria   Cyanoba… Not stated Valu… limnet… Growth       
#> 10    25 6.3      Synechococcus  Cyanoba… Not stated Valu… leopol… Growth       
#> # ℹ 12 more rows
#> # ℹ 1 more variable: Toxicity_measure <chr>
…
#>  6    248   7        Lemna         Macr… Not stated Trach… minor   Growth       
#>  7      7.7 5        Navicula      Diat… Not stated Bacil… pellic… Growth       
#>  8     20   2        Gomphonema    Diat… Not stated Bacil… sp.     Growth       
#>  9     20   2        Encyonema     Diat… Not stated Bacil… gracil… Growth       
#> 10     20   2        Ulnaria       Diat… Not stated Bacil… ulna    Growth       
#> 11    500   2        Gomphonema    Diat… Not stated Bacil… gracile Growth       
#> 12    500   2        Cymbella      Diat… Not stated Bacil… sp.     Growth       
#> 13    500   2        Achnanthidium Diat… Not stated Bacil… minuti… Growth       
#> 14    500   2        Eunotia       Diat… Not stated Bacil… cf. in… Growth       
#> 15    500   2        Navicula      Diat… Not stated Bacil… crypto… Growth       
#> 16  13000   21       Daphnia       Crus… Neonate    Arthr… magna   Immobilisati…
#> # ℹ 1 more variable: Toxicity_measure <chr>
#> 
#> $anzg_metolachlor_fresh
#> # A tibble: 21 × 10
#>     Conc Duration Genus      Group Life_stage Notes Phylum Species Test_endpoint
#>    <dbl> <chr>    <chr>      <chr> <chr>      <chr> <chr>  <chr>   <chr>        
#>  1  6528 4        Achnanthi… Diat… Exponenti… Spec… Bacil… minuti… Cell density 
#>  2   240 5        Anabaena   Blue… Not stated NA    Cyano… flosaq… Biomass yiel…
#>  3    14 14       Ceratophy… Macr… Not stated Spec… Trach… demers… Wet weight   
#>  4   228 4        Chlamydom… Gree… Not stated Spec… Chlor… reinha… Chlorophyll-…
#>  5     1 4        Chlorella  Gree… Exponenti… Spec… Chlor… pyreno… Chlorophyll-…
#>  6  4016 4        Craticula  Diat… Exponenti… Spec… Bacil… accomo… Chlorophyll-…
#>  7   925 4        Cyclotella Diat… Exponenti… Spec… Bacil… menegh… Cell density 
#>  8   224 21       Daphnia    Macr… <24 hour … NA    Arthr… magna   Young per fe…
#>  9   471 14       Elodea     Macr… Not stated Spec… Trach… canade… Wet weight   
#> 10  1048 4        Encyonema  Diat… Exponenti… Spec… Bacil… silesi… Chlorophyll-…
#> # ℹ 11 more rows
#> # ℹ 1 more variable: Toxicity_measure <chr>
…
#> # A tibble: 8 × 10
#>        Conc Duration Genus   Group Life_stage Notes Phylum Species Test_endpoint
#>       <dbl> <chr>    <chr>   <chr> <chr>      <chr> <chr>  <chr>   <chr>        
#> 1    95.4   5        Anabae… Blue… Not stated NA    Cyano… flos-a… Biomass yiel…
#> 2     0.054 8        Elodea  Macr… Apical sh… Apic… Trach… canade… Shoot length 
#> 3     0.193 7        Lemna   Macr… Not stated NA    Trach… gibba   Frond count  
#> 4     0.1   42       Lemna   Macr… Exponenti… NA    Trach… minor   Frond count  
#> 5     0.4   14       Myriop… Macr… Apical sh… NA    Trach… spicat… Root occurre…
#> 6 92800     4        Navicu… Diat… Not stated NA    Bacil… pellic… Biomass yiel…
#> 7  4500     90       Oncorh… Fish  Early life NA    Chord… mykiss  Mortality    
#> 8    10     5        Pseudo… Gree… Not stated NA    Chlor… subcap… Biomass yiel…
#> # ℹ 1 more variable: Toxicity_measure <chr>
#> 
#> $anzg_nickel_marine
#> # A tibble: 31 × 9
#>       Conc Duration Genus        Group   Life_stage Phylum Species Test_endpoint
#>      <dbl> <chr>    <chr>        <chr>   <chr>      <chr>  <chr>   <chr>        
#>  1  3700   3        Cyanobium    Cyanob… 6 x 10^3 … Cyano… sp.     Growth rate  
#>  2  2870   3        Ceratoneis   Diatom  5-6 d old… Bacil… closte… Growth rate  
#>  3   132   4        Skeletonema  Diatom  Not stated Bacil… costat… Growth       
#>  4 17900   4        Dunaliella   Green … Not stated Chlor… tertio… Growth       
#>  5   250   3        Isochrysis   Brown-… 5-6 d old… Hapto… lutea   Growth rate  
#>  6   310   3        Symbiodinium Dinofl… 6-7 d old… Dinop… sp.     Growth rate  
#>  7   144   10       Champia      Red ma… Adult      Rhodo… parvula Reproduction 
#>  8    96.7 10       Macrocystis  Brown … Zoospore   Phaeo… pyrife… Reproduction 
#>  9     5.5 3.33     Acartia      Crusta… Egg        Arthr… sinjie… Development  
#> 10    67   4        Amphibalanus Crusta… Nauplius   Arthr… amphit… Metamorphosis
#> # ℹ 21 more rows
#> # ℹ 1 more variable: Toxicity_measure <chr>
…
#>    <dbl> <chr>    <chr>        <chr>     <chr>      <chr>  <chr>   <chr>        
#>  1   2.6 4        Oscillatoria Cyanobac… Not stated Cyano… cf. ch… Growth       
#>  2 114   4        Raphidocelis Green al… Not stated Chlor… subcap… Growth       
#>  3   5.1 4        Lemna        Macrophy… Not stated Trach… minor   Growth       
#>  4   1   28       Lemna        Macrophy… Not stated Trach… gibba   Growth       
#>  5  31.8 7        Lemna        Macrophy… Not stated Trach… paucic… Growth       
#>  6  15.2 2        Mesocyclops  Crustace… Nauplii    Arthr… sp.     Mortality    
#>  7  20.7 2        Mesocyclops  Crustace… Nauplii    Arthr… asperi… Mortality    
#>  8 125   2        Daphnia      Crustace… Neonates   Arthr… magna   Immobilisati…
#>  9   8.4 1        Oncorhynchus Fish      Juveniles  Chord… mykiss  Mortality    
#> 10  13.8 5        Xenopus      Amphibian Embryo     Chord… laevis  Mortality    
#> # ℹ 1 more variable: Toxicity_measure <chr>
#> 
#> $anzg_perfluorooctane_sulfonate_pfos_fresh
#> # A tibble: 37 × 9
#>       Conc Duration Genus        Group   Life_stage Phylum Species Test_endpoint
#>      <dbl> <chr>    <chr>        <chr>   <chr>      <chr>  <chr>   <chr>        
#>  1  2000   30       Bufo         Amphib… Tadpole    Chord… gargar… Mortality    
#>  2    57.6 72       Lithobates   Amphib… Tadpole    Chord… catesb… Growth       
#>  3    10   40       Lithobates   Amphib… Tadpole    Chord… pipiens Development  
#>  4  1250   36       Xenopus      Amphib… Tadpole    Chord… laevis  Growth       
#>  5   590   150      Xenopus      Amphib… Embryo     Chord… tropic… Growth       
#>  6 82000   4        Anabaena     Cyanob… Not stated Cyano… flos-a… Growth and b…
#>  7  6900   6        Ceriodaphnia Crusta… Neonate    Arthr… dubia   Reproduction 
#>  8   400   28       Cyclops      Crusta… Not stated Arthr… diapto… Survival     
#>  9  1000   35       Cyclops      Crusta… Not stated Arthr… cantho… Survival     
#> 10     0.4 21       Daphnia      Crusta… Neonate    Arthr… carina… Reproduction 
#> # ℹ 27 more rows
#> # ℹ 1 more variable: Toxicity_measure <chr>
…
#>  6    24 4        Hydroides    Annelid   Larvae     Annel… elegans Development  
#>  7     9 28       Aiptasia     Anemone   Adult      Cnida… pulche… Reproduction 
#>  8    62 28       Allorchestes Crustace… Juveniles  Arthr… compre… Mortality    
#>  9   230 14       Callianassa  Crustace… Adult      Arthr… austra… Immobilisati…
#> 10    24 2        Crassostrea  Mollusc   Embryos    Mollu… gigas   Development  
#> 11    64 28       Haliotis     Mollusc   NR         Mollu… divers… Growth       
#> 12     5 2        Mimachlamys  Mollusc   Larvae     Mollu… asperr… Development  
#> 13    35 2        Mytilus      Mollusc   Eggs/Larv… Mollu… edulis  Development  
#> 14    36 2        Mytilus      Mollusc   Embryos    Mollu… gallop… Development  
#> 15    64 2        Mytilus      Mollusc   Embryos    Mollu… trossu… Development  
#> 16  2080 14       Saccostrea   Mollusc   Larvae     Mollu… glomer… Mortality    
#> # ℹ 1 more variable: Toxicity_measure <chr>
#> 
#> $ccme_boron
#> # A tibble: 28 × 5
#>    Chemical Species                  Conc Group        Units
#>    <chr>    <chr>                   <dbl> <fct>        <chr>
#>  1 Boron    Oncorhynchus mykiss       2.1 Fish         mg/L 
#>  2 Boron    Ictalurus punctatus       2.4 Fish         mg/L 
#>  3 Boron    Micropterus salmoides     4.1 Fish         mg/L 
#>  4 Boron    Brachydanio rerio        10   Fish         mg/L 
#>  5 Boron    Carassius auratus        15.6 Fish         mg/L 
#>  6 Boron    Pimephales promelas      18.3 Fish         mg/L 
#>  7 Boron    Daphnia magna             6   Invertebrate mg/L 
#>  8 Boron    Opercularia bimarginata  10   Invertebrate mg/L 
#>  9 Boron    Ceriodaphnia dubia       13.4 Invertebrate mg/L 
#> 10 Boron    Entosiphon sulcatum      15   Invertebrate mg/L 
#> # ℹ 18 more rows
#> 
#> $ccme_cadmium
#> # A tibble: 36 × 5
#>    Chemical Species                   Conc Group Units
#>    <chr>    <chr>                    <dbl> <fct> <chr>
#>  1 Cadmium  Oncorhynchus mykiss       0.23 Fish  ug/L 
#>  2 Cadmium  Salvelinus confluentus    0.83 Fish  ug/L 
#>  3 Cadmium  Cottus bairdi             0.96 Fish  ug/L 
#>  4 Cadmium  Salmo salar               0.99 Fish  ug/L 
#>  5 Cadmium  Acipenser transmontanus   1.14 Fish  ug/L 
#>  6 Cadmium  Prosopium williamsoni     1.25 Fish  ug/L 
#>  7 Cadmium  Salmo trutta              1.36 Fish  ug/L 
#>  8 Cadmium  Salvelinus fontinalis     2.23 Fish  ug/L 
#>  9 Cadmium  Oncorhynchus tshawytscha  2.29 Fish  ug/L 
#> 10 Cadmium  Pimephales promelas       2.36 Fish  ug/L 
#> # ℹ 26 more rows
#> 
#> $ccme_chloride
#> # A tibble: 28 × 5
#>    Chemical Species                       Conc Group        Units
#>    <chr>    <chr>                        <dbl> <fct>        <chr>
#>  1 Chloride Pimephales promelas            598 Fish         mg/L 
#>  2 Chloride Salmo trutta fario             607 Fish         mg/L 
#>  3 Chloride Oncorhynchus mykiss            989 Fish         mg/L 
#>  4 Chloride Xenopus laevis                1307 Amphibian    mg/L 
#>  5 Chloride Rana pipiens                  3431 Amphibian    mg/L 
#>  6 Chloride Lampsilis fasciola              24 Invertebrate mg/L 
#>  7 Chloride Epioblasma torulosa rangiana    42 Invertebrate mg/L 
#>  8 Chloride Musculium securis              121 Invertebrate mg/L 
#>  9 Chloride Daphnia ambigua                259 Invertebrate mg/L 
#> 10 Chloride Daphnia pulex                  368 Invertebrate mg/L 
#> # ℹ 18 more rows
…
#>  2 Uranium  Pimephales promelas              1040 Fish         ug/L 
#>  3 Uranium  Esox lucius                      2550 Fish         ug/L 
#>  4 Uranium  Salvelinus namaycush            13400 Fish         ug/L 
#>  5 Uranium  Catostomus commersoni           14300 Fish         ug/L 
#>  6 Uranium  Hyalella azteca                    12 Invertebrate ug/L 
#>  7 Uranium  Ceriodaphnia dubia                 73 Invertebrate ug/L 
#>  8 Uranium  Simocephalus serrulatus           480 Invertebrate ug/L 
#>  9 Uranium  Daphnia magna                     530 Invertebrate ug/L 
#> 10 Uranium  Chironomus tentans                930 Invertebrate ug/L 
#> 11 Uranium  Pseudokirchneriella subcapitata    40 Plant        ug/L 
#> 12 Uranium  Lemna minor                      3100 Plant        ug/L 
#> 13 Uranium  Cryptomonas erosa                 172 Plant        ug/L 
#> 
#> $csiro_chlorine_marine
#> # A tibble: 30 × 2
#>     Conc Group   
#>    <dbl> <chr>   
#>  1    90 Rotifer 
#>  2   687 Amphipod
#>  3   145 Amphipod
#>  4   178 Shrimp  
#>  5  2890 Lobster 
#>  6   162 Mysid   
#>  7    90 Shrimp  
#>  8   134 Shrimp  
#>  9  1420 Crab    
#> 10    54 Fish    
#> # ℹ 20 more rows
…
