Species Sensitivity Data from US EPA ECOTOX Database — wqbench_data • ssddata
…
Only chemicals with representative species for four or more taxonomic classes are included.
This was done to align somewhat with the methods for ANZG
(https://www.waterquality.gov.au/anz-guidelines/guideline-values/derive/warne-method-derive-2025)
which requires guidelines are derived only when there are taxa from four or more "distinct taxa".
Using class to define "distinct taxa" only approximates this requirement, because
the definition provided in the ANZG is not linked directly to any one taxonomic
hierarchical level and therefore cannot be applied in any automated way using
the taxonomic hierarchy.

    Examples

print(wqbench_data)
#> # A tibble: 36,629 × 15
#>    Chemical       cas   Species common_name effect   Conc Group ecological_group
#>    <chr>          <chr> <chr>   <chr>       <chr>   <dbl> <fct> <fct>           
#>  1 1-Chloro-4-ni… 1000… Daphni… Water Flea  Repro…  0.19  Inve… Planktonic Inve…
#>  2 1-Chloro-4-ni… 1000… Poecil… Guppy       Morta…  0.66  Fish  Other           
#>  3 1-Chloro-4-ni… 1000… Chlore… Green Algae Growth  0.98  Algae Other           
#>  4 1-Chloro-4-ni… 1000… Tetrah… Ciliate     Popul…  7.44  Inve… Other           
#>  5 1-Chloro-4-ni… 1000… Penaeu… Fleshy Pra… Morta…  0.214 Inve… Other           
#>  6 1-Chloro-4-ni… 1000… Danio … Zebra Danio Behav…  0.306 Fish  Other           
#>  7 1-Chloro-4-ni… 1000… Desmod… Green Algae Popul…  3.28  Algae Other           
#>  8 4-Nitrobenzen… 1000… Pimeph… Fathead Mi… Morta… 11.1   Fish  Other           
#>  9 4-Nitrobenzen… 1000… Lepomi… Bluegill    Morta…  3.6   Fish  Other           
#> 10 4-Nitrobenzen… 1000… Oncorh… Rainbow Tr… Morta…  2     Fish  Salmonid        
#> # ℹ 36,619 more rows
#> # ℹ 7 more variables: species_present_in_bc <lgl>, method <chr>,
#> #   species_number <int>, class <chr>, tax_order <chr>, family <chr>,
#> #   Medium <chr>
…
